{
  "compilerOptions": {
    "baseUrl": ".",
    "paths": {
      "@api/*": [ "./api/*" ],
      "@pages/*": [ "./pages/*" ],
      "@public/*": [ "./public/*" ],
      "@styles/*": [ "./styles/*" ],
      "@lang/*": [ "./locales/*" ],
      "@lib/*": [ "./lib/*" ],
      "@redux/*": [ "./redux/*" ],
      "@tests/*": [ "./tests/*" ],
      "@components/*": [ "./src/components/*" ],
      "@views/*": [ "./src/views/*" ]
    }
  }
}
